{
  "project_info": {
    "project_number": "401087395809",
    "firebase_url": "https://albanian-radio.firebaseio.com",
    "project_id": "albanian-radio",
    "storage_bucket": "albanian-radio.appspot.com"
  },
  "client": [
    {
      "client_info": {
        "mobilesdk_app_id": "1:401087395809:android:cca3d2ab45e88cde",
        "android_client_info": {
          "package_name": "com.ghanaradios.kduo"
        }
      },
      "oauth_client": [
        {
          "client_id": "401087395809-0np70gsliaiu74m6g582sa437p21gn81.apps.googleusercontent.com",
          "client_type": 3
        }
      ],
      "api_key": [
        {
          "current_key": "AIzaSyDAjYpyk_-e-0rbJm3lmwucv44OD2tZyC8"
        }
      ],
      "services": {
        "analytics_service": {
          "status": 1
        },
        "appinvite_service": {
          "status": 1,
          "other_platform_oauth_client": []
        },
        "ads_service": {
          "status": 2
        }
      }
    },
    {
      "client_info": {
        "mobilesdk_app_id": "1:401087395809:android:90dbab154db33d18",
        "android_client_info": {
          "package_name": "com.haitiradiosandmusic.kduo"
        }
      },
      "oauth_client": [
        {
          "client_id": "401087395809-0np70gsliaiu74m6g582sa437p21gn81.apps.googleusercontent.com",
          "client_type": 3
        }
      ],
      "api_key": [
        {
          "current_key": "AIzaSyDAjYpyk_-e-0rbJm3lmwucv44OD2tZyC8"
        }
      ],
      "services": {
        "analytics_service": {
          "status": 1
        },
        "appinvite_service": {
          "status": 1,
          "other_platform_oauth_client": []
        },
        "ads_service": {
          "status": 2
        }
      }
    },
    {
      "client_info": {
        "mobilesdk_app_id": "1:401087395809:android:dfb54ec8b4b735f7",
        "android_client_info": {
          "package_name": "com.senegalradiosandmusic.kduo"
        }
      },
      "oauth_client": [
        {
          "client_id": "401087395809-0np70gsliaiu74m6g582sa437p21gn81.apps.googleusercontent.com",
          "client_type": 3
        }
      ],
      "api_key": [
        {
          "current_key": "AIzaSyDAjYpyk_-e-0rbJm3lmwucv44OD2tZyC8"
        }
      ],
      "services": {
        "analytics_service": {
          "status": 1
        },
        "appinvite_service": {
          "status": 1,
          "other_platform_oauth_client": []
        },
        "ads_service": {
          "status": 2
        }
      }
    },
    {
      "client_info": {
        "mobilesdk_app_id": "1:401087395809:android:a3fa2ffedcf3c980",
        "android_client_info": {
          "package_name": "com.elsalvadorradios.kduo"
        }
      },
      "oauth_client": [
        {
          "client_id": "401087395809-0np70gsliaiu74m6g582sa437p21gn81.apps.googleusercontent.com",
          "client_type": 3
        }
      ],
      "api_key": [
        {
          "current_key": "AIzaSyDAjYpyk_-e-0rbJm3lmwucv44OD2tZyC8"
        }
      ],
      "services": {
        "analytics_service": {
          "status": 1
        },
        "appinvite_service": {
          "status": 1,
          "other_platform_oauth_client": []
        },
        "ads_service": {
          "status": 2
        }
      }
    },
    {
      "client_info": {
        "mobilesdk_app_id": "1:401087395809:android:1eba70e0367d809c",
        "android_client_info": {
          "package_name": "com.honduras.kduo"
        }
      },
      "oauth_client": [
        {
          "client_id": "401087395809-0np70gsliaiu74m6g582sa437p21gn81.apps.googleusercontent.com",
          "client_type": 3
        }
      ],
      "api_key": [
        {
          "current_key": "AIzaSyDAjYpyk_-e-0rbJm3lmwucv44OD2tZyC8"
        }
      ],
      "services": {
        "analytics_service": {
          "status": 1
        },
        "appinvite_service": {
          "status": 1,
          "other_platform_oauth_client": []
        },
        "ads_service": {
          "status": 2
        }
      }
    }
  ],
  "configuration_version": "1"
}